"Country or Area","Year","Value"
"Australia","2016","413369.922999922"
"Australia","2015","402995.45341641"
"Australia","2014","393464.239204598"
"Australia","2013","398163.798184305"
"Australia","2012","407146.057137231"
"Australia","2011","404246.57114897"
"Australia","2010","406752.772695389"
"Australia","2009","408672.631647233"
"Australia","2008","405048.53717719"
"Australia","2007","400415.729422351"
"Australia","2006","392681.873174982"
"Australia","2005","386515.211594785"
"Australia","2004","383204.94472309"
"Australia","2003","369725.835428463"
"Australia","2002","362209.093829325"
"Australia","2001","357668.742790314"
"Australia","2000","350194.581777693"
"Australia","1999","344063.336207"
"Australia","1998","334684.106535041"
"Australia","1997","320794.696404265"
"Australia","1996","312361.209994883"
"Australia","1995","305409.799300553"
"Australia","1994","294014.610394374"
"Australia","1993","289234.856483038"
"Australia","1992","284912.12433001"
"Australia","1991","279872.363891333"
"Australia","1990","278424.375726354"
"Austria","2016","67402.0825866645"
"Austria","2015","66703.9879263669"
"Austria","2014","64253.3261843079"
"Austria","2013","68001.230426846"
"Austria","2012","67661.3995521171"
"Austria","2011","70115.6704326116"
"Austria","2010","72383.1441272578"
"Austria","2009","67483.0597159668"
"Austria","2008","73806.2710457728"
"Austria","2007","74032.1171305129"
"Austria","2006","76688.4645134055"
"Austria","2005","79366.679877676"
"Austria","2004","78052.5459788023"
"Austria","2003","77764.2492157985"
"Austria","2002","72146.5382070756"
"Austria","2001","70390.8574311891"
"Austria","2000","66261.7430574386"
"Austria","1999","65621.0049633297"
"Austria","1998","67054.3640444077"
"Austria","1997","67453.0113109316"
"Austria","1996","67673.8874363644"
"Austria","1995","64205.9502214527"
"Austria","1994","61190.346754972"
"Austria","1993","60787.739132288"
"Austria","1992","60431.4591788529"
"Austria","1991","65899.6776502192"
"Austria","1990","62292.2289348589"
"Belarus","2016","60509.2029425066"
"Belarus","2015","58965.7528344353"
"Belarus","2014","63779.9853301728"
"Belarus","2013","64423.6974966854"
"Belarus","2012","63674.7570897177"
"Belarus","2011","62772.7461417606"
"Belarus","2010","63862.3896675745"
"Belarus","2009","61937.8322637952"
"Belarus","2008","66390.0588770928"
"Belarus","2007","64263.9228333069"
"Belarus","2006","64861.610269178"
"Belarus","2005","62049.3943894498"
"Belarus","2004","60767.1915191423"
"Belarus","2003","57112.2866240652"
"Belarus","2002","55677.1567163138"
"Belarus","2001","55560.3301990437"
"Belarus","2000","55458.0348871645"
"Belarus","1999","56991.2070747372"
"Belarus","1998","59407.8185754427"
"Belarus","1997","62545.8355591334"
"Belarus","1996","59202.2742203084"
"Belarus","1995","57947.4893812873"
"Belarus","1994","64372.9570141916"
"Belarus","1993","77615.57865439"
"Belarus","1992","89990.4456659498"
"Belarus","1991","97040.0594262188"
"Belarus","1990","104134.684032564"
"Belgium","2016","100243.709223954"
"Belgium","2015","100229.489804071"
"Belgium","2014","96391.0412508051"
"Belgium","2013","101970.441980596"
"Belgium","2012","101394.975187301"
"Belgium","2011","104158.641918912"
"Belgium","2010","113582.031439296"
"Belgium","2009","107642.367043709"
"Belgium","2008","120659.010028169"
"Belgium","2007","120611.401780879"
"Belgium","2006","124030.888529781"
"Belgium","2005","125638.201617491"
"Belgium","2004","129040.882690648"
"Belgium","2003","127953.18469516"
"Belgium","2002","126444.626442896"
"Belgium","2001","126129.005853565"
"Belgium","2000","126794.789289952"
"Belgium","1999","124745.701418605"
"Belgium","1998","130285.112643301"
"Belgium","1997","124046.824633824"
"Belgium","1996","129583.624556681"
"Belgium","1995","126082.964152193"
"Belgium","1994","124938.188982196"
"Belgium","1993","121557.284451692"
"Belgium","1992","122657.810581224"
"Belgium","1991","123544.709375005"
"Belgium","1990","120484.399253991"
"Bulgaria","2016","45287.3869158247"
"Bulgaria","2015","48132.6915099182"
"Bulgaria","2014","45142.4692138509"
"Bulgaria","2013","42586.0027206618"
"Bulgaria","2012","48269.4913492226"
"Bulgaria","2011","53116.4674129796"
"Bulgaria","2010","47792.8033547561"
"Bulgaria","2009","45707.1451282628"
"Bulgaria","2008","53972.7925556939"
"Bulgaria","2007","55637.0341777589"
"Bulgaria","2006","51825.570508838"
"Bulgaria","2005","50591.2947317378"
"Bulgaria","2004","49508.6394441039"
"Bulgaria","2003","50414.4611502419"
"Bulgaria","2002","46166.3637672995"
"Bulgaria","2001","48923.3153400683"
"Bulgaria","2000","45213.9263986005"
"Bulgaria","1999","46096.2719132467"
"Bulgaria","1998","52526.259826193"
"Bulgaria","1997","55181.6198051054"
"Bulgaria","1996","57952.5428936129"
"Bulgaria","1995","57536.9868135367"
"Bulgaria","1994","55936.1402380009"
"Bulgaria","1993","57483.4127360362"
"Bulgaria","1992","56839.9950155826"
"Bulgaria","1991","60058.0494592199"
"Bulgaria","1990","78672.9418616514"
"Canada","2016","558188.999667831"
"Canada","2015","565576.677002375"
"Canada","2014","568008.387994343"
"Canada","2013","568892.395683788"
"Canada","2012","563675.200323301"
"Canada","2011","560775.900487646"
"Canada","2010","555459.69367958"
"Canada","2009","540518.686677531"
"Canada","2008","574805.870617227"
"Canada","2007","594140.24182419"
"Canada","2006","570487.642097584"
"Canada","2005","576801.628717104"
"Canada","2004","585832.799322863"
"Canada","2003","587596.290506796"
"Canada","2002","570885.097812262"
"Canada","2001","564635.320056198"
"Canada","2000","572530.739963948"
"Canada","1999","550043.15020295"
"Canada","1998","534236.497510592"
"Canada","1997","525253.071570658"
"Canada","1996","510556.786401353"
"Canada","1995","495664.515634965"
"Canada","1994","483058.456915861"
"Canada","1993","467879.575184316"
"Canada","1992","468864.767454733"
"Canada","1991","454627.504241659"
"Canada","1990","463879.790663038"
"Croatia","2016","18220.6018048484"
"Croatia","2015","17996.5679858826"
"Croatia","2014","17850.6723966615"
"Croatia","2013","18588.1780346156"
"Croatia","2012","19242.9730313793"
"Croatia","2011","20801.6735094367"
"Croatia","2010","21245.0832565832"
"Croatia","2009","21995.5060866399"
"Croatia","2008","23785.2970187588"
"Croatia","2007","25056.2250515144"
"Croatia","2006","23725.6389960551"
"Croatia","2005","23489.5339358421"
"Croatia","2004","23044.7557557969"
"Croatia","2003","23386.2845180675"
"Croatia","2002","22053.9707079216"
"Croatia","2001","20966.6980030048"
"Croatia","2000","19815.7352703936"
"Croatia","1999","20241.7370615951"
"Croatia","1998","19398.2424344987"
"Croatia","1997","18692.94156948"
"Croatia","1996","17629.2091635257"
"Croatia","1995","17040.0966448348"
"Croatia","1994","16361.2170118538"
"Croatia","1993","17103.7155821749"
"Croatia","1992","16632.5473552619"
"Croatia","1991","17304.1852025758"
"Croatia","1990","23441.9650608059"
"Cyprus","2016","7307.799069912"
"Cyprus","2015","6902.871456179"
"Cyprus","2014","6878.543047452"
"Cyprus","2013","6494.858936101"
"Cyprus","2012","7169.926639251"
"Cyprus","2011","7700.195129713"
"Cyprus","2010","8017.876956377"
"Cyprus","2009","8382.59852807"
"Cyprus","2008","8634.193702852"
"Cyprus","2007","8472.613098109"
"Cyprus","2006","8160.844811457"
"Cyprus","2005","7972.169641186"
"Cyprus","2004","7787.751050302"
"Cyprus","2003","7560.234908919"
"Cyprus","2002","7170.780099826"
"Cyprus","2001","6982.241102455"
"Cyprus","2000","7108.859503565"
"Cyprus","1999","6860.795538564"
"Cyprus","1998","6593.753487495"
"Cyprus","1997","6301.201088501"
"Cyprus","1996","6214.477565073"
"Cyprus","1995","5864.31564964"
"Cyprus","1994","5994.023111638"
"Cyprus","1993","5751.370451017"
"Cyprus","1992","5507.155126773"
"Cyprus","1991","5131.819069104"
"Cyprus","1990","4643.055864562"
"Czech Republic","2016","106543.295217518"
"Czech Republic","2015","104784.55794655"
"Czech Republic","2014","104060.306601564"
"Czech Republic","2013","106401.191566977"
"Czech Republic","2012","110914.080294825"
"Czech Republic","2011","115023.302050055"
"Czech Republic","2010","117495.552051449"
"Czech Republic","2009","115255.28356444"
"Czech Republic","2008","122933.86785031"
"Czech Republic","2007","128180.733879848"
"Czech Republic","2006","126380.290854183"
"Czech Republic","2005","125294.530662404"
"Czech Republic","2004","127759.325398167"
"Czech Republic","2003","127048.374047416"
"Czech Republic","2002","123598.029515719"
"Czech Republic","2001","126666.372537396"
"Czech Republic","2000","126896.914340828"
"Czech Republic","1999","116441.581666484"
"Czech Republic","1998","125125.662581826"
"Czech Republic","1997","130849.714125808"
"Czech Republic","1996","134648.713803469"
"Czech Republic","1995","131972.060881286"
"Czech Republic","1994","131532.508659836"
"Czech Republic","1993","137962.666642563"
"Czech Republic","1992","144074.218787581"
"Czech Republic","1991","148512.476304778"
"Czech Republic","1990","164227.40202555"
"Denmark","2016","38427.3349230291"
"Denmark","2015","36625.4167879435"
"Denmark","2014","38960.6147211383"
"Denmark","2013","43172.8389499428"
"Denmark","2012","41274.4212671277"
"Denmark","2011","45770.3877634241"
"Denmark","2010","50818.1423188621"
"Denmark","2009","50187.5451416742"
"Denmark","2008","52628.0345520737"
"Denmark","2007","56116.516040547"
"Denmark","2006","60880.5600948861"
"Denmark","2005","52968.5449850466"
"Denmark","2004","56544.0658377333"
"Denmark","2003","62077.2620180631"
"Denmark","2002","56919.6845527514"
"Denmark","2001","57338.0108574073"
"Denmark","2000","55640.3622498316"
"Denmark","1999","59872.742426141"
"Denmark","1998","62425.7161777526"
"Denmark","1997","66642.9686284338"
"Denmark","1996","76034.4405457767"
"Denmark","1995","62702.5445366282"
"Denmark","1994","65744.8706271438"
"Denmark","1993","61728.0455850219"
"Denmark","1992","59647.5909164451"
"Denmark","1991","65479.7281171586"
"Denmark","1990","54893.6488777096"
"Estonia","2016","17493.5031873089"
"Estonia","2015","15891.0682525942"
"Estonia","2014","18903.8401707299"
"Estonia","2013","19695.5969841696"
"Estonia","2012","17938.0590362975"
"Estonia","2011","19097.1973350058"
"Estonia","2010","19014.8579176416"
"Estonia","2009","14609.0671487074"
"Estonia","2008","17872.6504519986"
"Estonia","2007","20071.6477040259"
"Estonia","2006","16439.1891556714"
"Estonia","2005","17136.3214607739"
"Estonia","2004","17286.5906219791"
"Estonia","2003","17087.2485222114"
"Estonia","2002","15233.3217318905"
"Estonia","2001","15707.8683220034"
"Estonia","2000","15362.2073625375"
"Estonia","1999","15727.0688223903"
"Estonia","1998","16909.5888573041"
"Estonia","1997","18482.3205737733"
"Estonia","1996","18925.4303310236"
"Estonia","1995","18203.9932084851"
"Estonia","1994","19900.9743929154"
"Estonia","1993","19066.0275701455"
"Estonia","1992","24514.5907873095"
"Estonia","1991","34037.7050020184"
"Estonia","1990","37068.9774750056"
"European Union","2016","3489056.37494032"
"European Union","2015","3510585.96771146"
"European Union","2014","3476890.45974061"
"European Union","2013","3646209.06349632"
"European Union","2012","3734122.94736823"
"European Union","2011","3792826.00439553"
"European Union","2010","3938605.79182498"
"European Union","2009","3819221.78778641"
"European Union","2008","4161610.41119657"
"European Union","2007","4261957.0272521"
"European Union","2006","4308334.40529396"
"European Union","2005","4302542.58172739"
"European Union","2004","4326718.18936235"
"European Union","2003","4316776.04518315"
"European Union","2002","4225178.25325683"
"European Union","2001","4248810.15389125"
"European Union","2000","4177013.85944474"
"European Union","1999","4154061.01386058"
"European Union","1998","4218562.87682086"
"European Union","1997","4226570.6296013"
"European Union","1996","4316238.4711615"
"European Union","1995","4213005.09764059"
"European Union","1994","4166249.11637559"
"European Union","1993","4186595.77474583"
"European Union","1992","4270930.26767476"
"European Union","1991","4415598.43122428"
"European Union","1990","4472075.91789107"
"Finland","2016","47926.3786479062"
"Finland","2015","44346.0804592048"
"Finland","2014","47799.6534655418"
"Finland","2013","51901.5692878162"
"Finland","2012","51111.890376611"
"Finland","2011","56544.1418672861"
"Finland","2010","63991.7531363085"
"Finland","2009","55818.2269328982"
"Finland","2008","58608.8155795675"
"Finland","2007","66755.6628412356"
"Finland","2006","68379.8181994072"
"Finland","2005","57045.0155361225"
"Finland","2004","68961.5955150815"
"Finland","2003","72658.3697741986"
"Finland","2002","65061.8197966681"
"Finland","2001","62539.27412648"
"Finland","2000","57041.5319457874"
"Finland","1999","58898.2616607721"
"Finland","1998","59375.0649829491"
"Finland","1997","62718.2711015999"
"Finland","1996","64058.3500114721"
"Finland","1995","58141.5600015369"
"Finland","1994","61711.5683054265"
"Finland","1993","56348.5240180457"
"Finland","1992","54280.4746487325"
"Finland","1991","55225.2673155198"
"Finland","1990","56966.9866817851"
"France","2016","346790.208152355"
"France","2015","344389.949228036"
"France","2014","339786.094790383"
"France","2013","369874.441908832"
"France","2012","369432.518070251"
"France","2011","368133.738053237"
"France","2010","393476.380181377"
"France","2009","382118.93533386"
"France","2008","402212.069062768"
"France","2007","408366.900202052"
"France","2006","417760.380958743"
"France","2005","428231.848048567"
"France","2004","424703.684775979"
"France","2003","423956.534186112"
"France","2002","417286.217029748"
"France","2001","421893.607577427"
"France","2000","416961.472527228"
"France","1999","422304.349792333"
"France","1998","426117.860682838"
"France","1997","406548.445068511"
"France","1996","413560.353757768"
"France","1995","398143.73156969"
"France","1994","390903.48948518"
"France","1993","396295.822742211"
"France","1992","415863.175164115"
"France","1991","426460.446536178"
"France","1990","400836.758955313"
"Germany","2016","801753.007675456"
"Germany","2015","797078.165188178"
"Germany","2014","793635.84342125"
"Germany","2013","832642.995494902"
"Germany","2012","815197.408549902"
"Germany","2011","810802.32532412"
"Germany","2010","833684.917989256"
"Germany","2009","789963.521621921"
"Germany","2008","854420.96239996"
"Germany","2007","852096.162161881"
"Germany","2006","878747.131360038"
"Germany","2005","867223.505918637"
"Germany","2004","887996.50917161"
"Germany","2003","901969.864636358"
"Germany","2002","900955.099140372"
"Germany","2001","917476.828445417"
"Germany","2000","900960.091225824"
"Germany","1999","896882.683389602"
"Germany","1998","924404.52986836"
"Germany","1997","932347.358855956"
"Germany","1996","960174.299525608"
"Germany","1995","940086.745949946"
"Germany","1994","940407.989396174"
"Germany","1993","956994.179779531"
"Germany","1992","966705.828658197"
"Germany","1991","1014972.28615807"
"Germany","1990","1052997.50126902"
"Greece","2016","71373.0813084357"
"Greece","2015","74962.4516183782"
"Greece","2014","78655.8163045304"
"Greece","2013","81722.5796614762"
"Greece","2012","91417.8011341176"
"Greece","2011","94531.7032720435"
"Greece","2010","97342.9757973485"
"Greece","2009","104340.534008561"
"Greece","2008","111112.528238265"
"Greece","2007","114582.632848058"
"Greece","2006","112464.90984957"
"Greece","2005","113925.112051587"
"Greece","2004","109530.021026674"
"Greece","2003","109083.182046812"
"Greece","2002","105011.397708497"
"Greece","2001","105368.972292929"
"Greece","2000","102982.297759576"
"Greece","1999","97941.6503645224"
"Greece","1998","98624.7712451946"
"Greece","1997","93804.2042552404"
"Greece","1996","89098.5514867251"
"Greece","1995","86945.6414403053"
"Greece","1994","86391.9924532536"
"Greece","1993","84229.4537939372"
"Greece","1992","84915.798120717"
"Greece","1991","83350.9362927273"
"Greece","1990","83375.3637693834"
"Hungary","2016","47578.1829510952"
"Hungary","2015","46665.206045058"
"Hungary","2014","43915.3959067422"
"Hungary","2013","43767.6996653163"
"Hungary","2012","46808.4949470123"
"Hungary","2011","50358.0010924293"
"Hungary","2010","52120.5368638195"
"Hungary","2009","51781.0504977461"
"Hungary","2008","57438.1671980896"
"Hungary","2007","58522.3084477714"
"Hungary","2006","59839.4312869865"
"Hungary","2005","60499.9645050912"
"Hungary","2004","60406.2411280726"
"Hungary","2003","61936.7829829816"
"Hungary","2002","59162.8443919191"
"Hungary","2001","60171.6588251622"
"Hungary","2000","58551.6605863533"
"Hungary","1999","61828.2036655358"
"Hungary","1998","61348.289976298"
"Hungary","1997","61755.8999045852"
"Hungary","1996","63176.9831220763"
"Hungary","1995","61612.8764907332"
"Hungary","1994","61882.7274139752"
"Hungary","1993","63539.702924021"
"Hungary","1992","62408.8450281107"
"Hungary","1991","69777.2715507239"
"Hungary","1990","73455.4591832497"
"Iceland","2016","3489.97016221877"
"Iceland","2015","3536.41099233448"
"Iceland","2014","3461.84601625669"
"Iceland","2013","3481.77891811559"
"Iceland","2012","3488.68434168876"
"Iceland","2011","3486.41156470145"
"Iceland","2010","3620.9322014797"
"Iceland","2009","3731.08645791021"
"Iceland","2008","3794.95385621216"
"Iceland","2007","3493.94741209054"
"Iceland","2006","3147.03763421941"
"Iceland","2005","2968.90233105091"
"Iceland","2004","3101.2364954268"
"Iceland","2003","2979.68974079759"
"Iceland","2002","2987.89652621757"
"Iceland","2001","2862.68416920703"
"Iceland","2000","2933.98578344002"
"Iceland","1999","2841.27475000373"
"Iceland","1998","2635.45144355374"
"Iceland","1997","2615.62463316348"
"Iceland","1996","2520.13512058785"
"Iceland","1995","2465.1187457883"
"Iceland","1994","2361.91190817736"
"Iceland","1993","2421.01848716962"
"Iceland","1992","2263.01939263522"
"Iceland","1991","2117.70228275711"
"Iceland","1990","2237.41955644943"
"Ireland","2016","39928.1180552973"
"Ireland","2015","38443.6490056878"
"Ireland","2014","36681.6248406265"
"Ireland","2013","37182.847404385"
"Ireland","2012","38194.7536869117"
"Ireland","2011","38009.3036831478"
"Ireland","2010","41679.5175020884"
"Ireland","2009","42108.5071457903"
"Ireland","2008","47300.1054351871"
"Ireland","2007","47622.9461609847"
"Ireland","2006","47550.1945186313"
"Ireland","2005","48104.5666097609"
"Ireland","2004","46129.7410583673"
"Ireland","2003","45639.1233517559"
"Ireland","2002","46034.5859357959"
"Ireland","2001","47557.3542260493"
"Ireland","2000","45193.9526045592"
"Ireland","1999","42377.7811519629"
"Ireland","1998","40650.1023982688"
"Ireland","1997","38752.3572212929"
"Ireland","1996","37410.9597021644"
"Ireland","1995","35794.3787574959"
"Ireland","1994","34772.1918632752"
"Ireland","1993","33649.1849747034"
"Ireland","1992","33417.9826457397"
"Ireland","1991","33606.7459702401"
"Ireland","1990","32877.9357022873"
"Italy","2016","350323.014924208"
"Italy","2015","355483.213865628"
"Italy","2014","348476.240081887"
"Italy","2013","363399.90214448"
"Italy","2012","391990.364412905"
"Italy","2011","413431.505535463"
"Italy","2010","424873.161181115"
"Italy","2009","415932.393339753"
"Italy","2008","468062.059921049"
"Italy","2007","480491.585683967"
"Italy","2006","489749.96941337"
"Italy","2005","495234.014857746"
"Italy","2004","495527.786033193"
"Italy","2003","491480.723900529"
"Italy","2002","477709.338486836"
"Italy","2001","476201.869112356"
"Italy","2000","470767.746939441"
"Italy","1999","464601.452871657"
"Italy","1998","460240.327596298"
"Italy","1997","449465.620732047"
"Italy","1996","444561.573794466"
"Italy","1995","451978.906575074"
"Italy","1994","425490.635288068"
"Italy","1993","431600.973519813"
"Italy","1992","439210.414163348"
"Italy","1991","440094.422429263"
"Italy","1990","439944.10159658"
"Japan","2016","1204318.62329888"
"Japan","2015","1223666.47532555"
"Japan","2014","1264173.25224367"
"Japan","2013","1314069.57201549"
"Japan","2012","1302082.92682012"
"Japan","2011","1261398.58992865"
"Japan","2010","1211572.86753397"
"Japan","2009","1160203.63341047"
"Japan","2008","1229245.45037497"
"Japan","2007","1300051.97297765"
"Japan","2006","1262639.45174459"
"Japan","2005","1286856.31446442"
"Japan","2004","1280036.12238633"
"Japan","2003","1285385.41192226"
"Japan","2002","1277236.5460184"
"Japan","2001","1248087.4240286"
"Japan","2000","1262734.4619511"
"Japan","1999","1239840.12035382"
"Japan","1998","1203710.5334868"
"Japan","1997","1243367.13220561"
"Japan","1996","1249875.68782963"
"Japan","1995","1237852.82364555"
"Japan","1994","1225173.42051339"
"Japan","1993","1170196.73336388"
"Japan","1992","1176942.5703859"
"Japan","1991","1167040.51692518"
"Japan","1990","1155263.41469806"
"Latvia","2016","7263.61794365559"
"Latvia","2015","7333.66139505337"
"Latvia","2014","7238.75342463014"
"Latvia","2013","7423.59275043211"
"Latvia","2012","7583.85501852129"
"Latvia","2011","7882.67959224923"
"Latvia","2010","8646.95587887646"
"Latvia","2009","7480.70455202931"
"Latvia","2008","8218.72354167828"
"Latvia","2007","8655.06549193064"
"Latvia","2006","8333.30634331945"
"Latvia","2005","7835.15495225025"
"Latvia","2004","7750.95631635305"
"Latvia","2003","7740.6696568652"
"Latvia","2002","7542.93426693134"
"Latvia","2001","7516.32590827021"
"Latvia","2000","7099.04568531956"
"Latvia","1999","7737.97081431898"
"Latvia","1998","8328.91144013017"
"Latvia","1997","8706.81852109455"
"Latvia","1996","9243.54157347607"
"Latvia","1995","9167.58392899559"
"Latvia","1994","10420.2640209316"
"Latvia","1993","11987.7618212667"
"Latvia","1992","14267.2372412632"
"Latvia","1991","18038.6336552769"
"Latvia","1990","19805.8943217592"
"Liechtenstein","2016","148.362031395858"
"Liechtenstein","2015","158.885020594884"
"Liechtenstein","2014","161.101780937164"
"Liechtenstein","2013","192.539864503537"
"Liechtenstein","2012","185.317956726602"
"Liechtenstein","2011","176.779768346653"
"Liechtenstein","2010","190.805684812012"
"Liechtenstein","2009","205.35239748442"
"Liechtenstein","2008","219.503545448871"
"Liechtenstein","2007","200.764388539822"
"Liechtenstein","2006","231.096721888869"
"Liechtenstein","2005","228.969072101733"
"Liechtenstein","2004","229.381412089029"
"Liechtenstein","2003","229.347536415933"
"Liechtenstein","2002","220.013830320959"
"Liechtenstein","2001","214.666331916266"
"Liechtenstein","2000","216.856109760753"
"Liechtenstein","1999","226.5619530079"
"Liechtenstein","1998","229.234554380511"
"Liechtenstein","1997","218.366809670306"
"Liechtenstein","1996","205.956614216368"
"Liechtenstein","1995","204.201877848622"
"Liechtenstein","1994","201.110262359133"
"Liechtenstein","1993","215.033552122633"
"Liechtenstein","1992","206.949455397715"
"Liechtenstein","1991","206.327613892052"
"Liechtenstein","1990","198.969162653499"
"Lithuania","2016","13157.4571227852"
"Lithuania","2015","13141.5915250091"
"Lithuania","2014","12874.6680474819"
"Lithuania","2013","13106.3090819592"
"Lithuania","2012","14133.7495706302"
"Lithuania","2011","14066.6385173435"
"Lithuania","2010","13712.6317191673"
"Lithuania","2009","12828.0049545019"
"Lithuania","2008","15079.8454652547"
"Lithuania","2007","15763.2691621029"
"Lithuania","2006","14402.9574356681"
"Lithuania","2005","14089.3240427447"
"Lithuania","2004","13167.3246984497"
"Lithuania","2003","12591.8797863375"
"Lithuania","2002","12602.3717956108"
"Lithuania","2001","12496.1262574379"
"Lithuania","2000","11788.0244291923"
"Lithuania","1999","13407.518486326"
"Lithuania","1998","15888.0402097816"
"Lithuania","1997","15070.195509438"
"Lithuania","1996","15658.8198811494"
"Lithuania","1995","15004.147326857"
"Lithuania","1994","15748.218611408"
"Lithuania","1993","16332.1413198427"
"Lithuania","1992","21187.0619793163"
"Lithuania","1991","37883.2834024956"
"Lithuania","1990","35787.2060062107"
"Luxembourg","2016","9002.95552053963"
"Luxembourg","2015","9259.65885870098"
"Luxembourg","2014","9757.50633032683"
"Luxembourg","2013","10233.3384784063"
"Luxembourg","2012","10788.0813325893"
"Luxembourg","2011","11050.369814536"
"Luxembourg","2010","11154.2893215421"
"Luxembourg","2009","10588.4525831607"
"Luxembourg","2008","11132.2598397824"
"Luxembourg","2007","11268.8345341332"
"Luxembourg","2006","11879.2570167287"
"Luxembourg","2005","12048.3963334543"
"Luxembourg","2004","11785.2315553094"
"Luxembourg","2003","10411.6335041083"
"Luxembourg","2002","9942.24796272409"
"Luxembourg","2001","9166.12433689517"
"Luxembourg","2000","8672.8699579512"
"Luxembourg","1999","8090.45854524013"
"Luxembourg","1998","7639.37300461324"
"Luxembourg","1997","8518.76176984995"
"Luxembourg","1996","9165.47997662882"
"Luxembourg","1995","9118.08014245513"
"Luxembourg","1994","11508.950018311"
"Luxembourg","1993","12320.6292683197"
"Luxembourg","1992","12180.1944366782"
"Luxembourg","1991","12424.0272822822"
"Luxembourg","1990","11812.0413121524"
"Malta","2016","1420.27718150001"
"Malta","2015","1757.75432098972"
"Malta","2014","2462.99602393405"
"Malta","2013","2473.93338118561"
"Malta","2012","2810.52005461088"
"Malta","2011","2655.26889591701"
"Malta","2010","2590.21730817085"
"Malta","2009","2584.31909420741"
"Malta","2008","2823.74380109052"
"Malta","2007","2756.04538429169"
"Malta","2006","2679.44262633108"
"Malta","2005","2666.0194620821"
"Malta","2004","2557.2765293572"
"Malta","2003","2662.35763269372"
"Malta","2002","2443.91872628379"
"Malta","2001","2468.11366558329"
"Malta","2000","2570.86854669531"
"Malta","1999","2570.28661434931"
"Malta","1998","2516.0506151708"
"Malta","1997","2515.04743551012"
"Malta","1996","2469.96816299957"
"Malta","1995","2498.3013393629"
"Malta","1994","2502.53026309341"
"Malta","1993","2333.9130475778"
"Malta","1992","2319.45275194483"
"Malta","1991","2110.57533886454"
"Malta","1990","1943.32113874324"
"Monaco","2016","66.9582145359202"
"Monaco","2015","69.6374415569289"
"Monaco","2014","69.1982251130099"
"Monaco","2013","75.1648698500313"
"Monaco","2012","75.5766353708416"
"Monaco","2011","72.2483078101637"
"Monaco","2010","75.1905272074497"
"Monaco","2009","77.2234577308479"
"Monaco","2008","80.987896981936"
"Monaco","2007","83.0723609967791"
"Monaco","2006","82.4475619101049"
"Monaco","2005","88.9243204512431"
"Monaco","2004","90.5100832712566"
"Monaco","2003","95.5974592670199"
"Monaco","2002","98.4177486928566"
"Monaco","2001","98.8087359719338"
"Monaco","2000","98.5542393431769"
"Monaco","1999","100.895465211595"
"Monaco","1998","100.065339480216"
"Monaco","1997","101.327844186736"
"Monaco","1996","102.582185564089"
"Monaco","1995","99.2371912589636"
"Monaco","1994","102.117101644575"
"Monaco","1993","101.122733361763"
"Monaco","1992","101.975888163246"
"Monaco","1991","96.3299602207723"
"Monaco","1990","95.5245998999256"
"Netherlands","2016","165522.069348924"
"Netherlands","2015","165029.876609465"
"Netherlands","2014","157347.061484457"
"Netherlands","2013","164757.276738594"
"Netherlands","2012","164948.743548481"
"Netherlands","2011","169118.699889982"
"Netherlands","2010","182179.63556426"
"Netherlands","2009","170180.412276337"
"Netherlands","2008","175519.219676076"
"Netherlands","2007","172600.460475877"
"Netherlands","2006","172736.702279704"
"Netherlands","2005","177530.881540258"
"Netherlands","2004","181453.315911889"
"Netherlands","2003","179824.198652366"
"Netherlands","2002","176374.898429254"
"Netherlands","2001","177079.434557995"
"Netherlands","2000","171935.801169871"
"Netherlands","1999","170991.27704883"
"Netherlands","1998","176402.1609964"
"Netherlands","1997","175292.382158187"
"Netherlands","1996","182473.197535653"
"Netherlands","1995","173032.706799464"
"Netherlands","1994","171398.399412058"
"Netherlands","1993","170796.225356654"
"Netherlands","1992","170654.887043327"
"Netherlands","1991","170819.825378812"
"Netherlands","1990","162440.836158031"
"New Zealand","2016","34462.9311586113"
"New Zealand","2015","35837.1079684296"
"New Zealand","2014","35610.4039366031"
"New Zealand","2013","35214.4650819245"
"New Zealand","2012","35969.2627769481"
"New Zealand","2011","34328.8161907943"
"New Zealand","2010","35010.6986813227"
"New Zealand","2009","34806.699322412"
"New Zealand","2008","37655.7309423292"
"New Zealand","2007","36642.0462128381"
"New Zealand","2006","37520.0807018265"
"New Zealand","2005","37647.5736295875"
"New Zealand","2004","36064.917993327"
"New Zealand","2003","36493.0916744984"
"New Zealand","2002","34768.7180518394"
"New Zealand","2001","34582.6676946684"
"New Zealand","2000","32359.158047086"
"New Zealand","1999","31528.5665375368"
"New Zealand","1998","29934.4330015948"
"New Zealand","1997","31356.0892062436"
"New Zealand","1996","29375.2284019647"
"New Zealand","1995","28153.4355252157"
"New Zealand","1994","27888.7573070194"
"New Zealand","1993","27706.9690882818"
"New Zealand","1992","28112.5681244835"
"New Zealand","1991","26118.0720850204"
"New Zealand","1990","25453.5695250854"
"Norway","2016","44031.6226807846"
"Norway","2015","44663.7345376998"
"Norway","2014","43952.6633443956"
"Norway","2013","44302.6539147551"
"Norway","2012","44560.8196581056"
"Norway","2011","44982.5568663433"
"Norway","2010","45823.2772404522"
"Norway","2009","43205.4035928452"
"Norway","2008","44903.0221041381"
"Norway","2007","45851.8905977539"
"Norway","2006","43923.3475893589"
"Norway","2005","43560.7080626543"
"Norway","2004","44337.01057438"
"Norway","2003","43921.7821976213"
"Norway","2002","42667.0476437731"
"Norway","2001","43559.8431532528"
"Norway","2000","42215.8849585405"
"Norway","1999","42709.4887188187"
"Norway","1998","41956.6632543068"
"Norway","1997","41698.9096009971"
"Norway","1996","41593.8338018847"
"Norway","1995","38477.2200813943"
"Norway","1994","38445.9574929674"
"Norway","1993","36531.5625170372"
"Norway","1992","34831.8925907555"
"Norway","1991","34069.334139415"
"Norway","1990","35704.388093822"
"Poland","2016","321182.010037645"
"Poland","2015","310526.317578801"
"Poland","2014","307044.692151637"
"Poland","2013","319608.069424774"
"Poland","2012","323823.354242792"
"Poland","2011","331268.300346866"
"Poland","2010","331709.981051661"
"Poland","2009","313756.919701927"
"Poland","2008","327059.270809724"
"Poland","2007","333894.272614541"
"Poland","2006","334048.046383889"
"Poland","2005","321099.16425393"
"Poland","2004","322154.839364343"
"Poland","2003","318099.459115714"
"Poland","2002","305435.774390756"
"Poland","2001","313263.025288816"
"Poland","2000","316828.092478755"
"Poland","1999","327261.069480461"
"Poland","1998","337020.859985326"
"Poland","1997","366226.801263925"
"Poland","1996","375017.592176896"
"Poland","1995","361072.034116364"
"Poland","1994","359386.83295565"
"Poland","1993","363953.863511663"
"Poland","1992","363516.273328132"
"Poland","1991","373165.688939245"
"Poland","1990","375810.951781834"
"Portugal","2016","50285.4715735866"
"Portugal","2015","52205.221594547"
"Portugal","2014","47962.8918695015"
"Portugal","2013","48088.8378779525"
"Portugal","2012","49887.6468316548"
"Portugal","2011","51713.8810436959"
"Portugal","2010","52897.5698524613"
"Portugal","2009","57096.367735863"
"Portugal","2008","59941.7356341719"
"Portugal","2007","62288.0074167618"
"Portugal","2006","64791.1769384256"
"Portugal","2005","69521.3279735897"
"Portugal","2004","67245.8798995966"
"Portugal","2003","64459.7487639435"
"Portugal","2002","69580.5300544942"
"Portugal","2001","65729.391408566"
"Portugal","2000","66059.9440037116"
"Portugal","1999","67243.2425781728"
"Portugal","1998","59621.2743140493"
"Portugal","1997","55126.8246429342"
"Portugal","1996","52109.3698838513"
"Portugal","1995","54804.4628092183"
"Portugal","1994","50831.5852038267"
"Portugal","1993","50079.8744483862"
"Portugal","1992","51466.2429740943"
"Portugal","1991","47210.724242665"
"Portugal","1990","45585.5598537826"
"Romania","2016","75051.6574718658"
"Romania","2015","77788.2204454259"
"Romania","2014","77160.48722412"
"Romania","2013","76829.1981839658"
"Romania","2012","86320.9253879694"
"Romania","2011","89343.2177101806"
"Romania","2010","83551.2581346846"
"Romania","2009","87205.4225299966"
"Romania","2008","105365.397560045"
"Romania","2007","108559.69288569"
"Romania","2006","104130.559804408"
"Romania","2005","100966.617116167"
"Romania","2004","102874.430111692"
"Romania","2003","103576.692965733"
"Romania","2002","99151.8782213806"
"Romania","2001","98877.0634513553"
"Romania","2000","93538.381764087"
"Romania","1999","88682.298253201"
"Romania","1998","104755.659109981"
"Romania","1997","119265.891658467"
"Romania","1996","128277.631649565"
"Romania","1995","124836.930770772"
"Romania","1994","119670.747446745"
"Romania","1993","121627.189605428"
"Romania","1992","130286.047400714"
"Romania","1991","140966.758450214"
"Romania","1990","171231.788287431"
"Russian Federation","2016","1668069.93327538"
"Russian Federation","2015","1671895.07892375"
"Russian Federation","2014","1667110.70649671"
"Russian Federation","2013","1665988.57416488"
"Russian Federation","2012","1726099.49989366"
"Russian Federation","2011","1712424.76894478"
"Russian Federation","2010","1657560.67906561"
"Russian Federation","2009","1572439.00942406"
"Russian Federation","2008","1679794.4499678"
"Russian Federation","2007","1647728.94048712"
"Russian Federation","2006","1648658.73427392"
"Russian Federation","2005","1588662.86444768"
"Russian Federation","2004","1570864.19757079"
"Russian Federation","2003","1562472.35084693"
"Russian Federation","2002","1528961.74696535"
"Russian Federation","2001","1538244.39951906"
"Russian Federation","2000","1499616.2093038"
"Russian Federation","1999","1512984.70571319"
"Russian Federation","1998","1484852.22340498"
"Russian Federation","1997","1502137.42519094"
"Russian Federation","1996","1606949.0150552"
"Russian Federation","1995","1640263.21786214"
"Russian Federation","1994","1669637.14419615"
"Russian Federation","1993","1890935.00230434"
"Russian Federation","1992","1993217.62820445"
"Russian Federation","1991","2437038.08228176"
"Russian Federation","1990","2571210.65114756"
"Slovakia","2016","33996.7723740754"
"Slovakia","2015","33897.4773477332"
"Slovakia","2014","33564.6709694491"
"Slovakia","2013","35633.934532262"
"Slovakia","2012","36109.0531328781"
"Slovakia","2011","37932.8451791624"
"Slovakia","2010","38626.5187267528"
"Slovakia","2009","37639.4256917558"
"Slovakia","2008","41484.5904850579"
"Slovakia","2007","40949.0687257541"
"Slovakia","2006","42603.7190077451"
"Slovakia","2005","42907.4873265241"
"Slovakia","2004","42991.1637599615"
"Slovakia","2003","42426.7751603393"
"Slovakia","2002","42036.5825980553"
"Slovakia","2001","43836.5586251439"
"Slovakia","2000","41533.1533222824"
"Slovakia","1999","43340.7820701967"
"Slovakia","1998","44175.1514806771"
"Slovakia","1997","45204.3122825946"
"Slovakia","1996","45165.534993317"
"Slovakia","1995","44866.5165306751"
"Slovakia","1994","43827.8734006673"
"Slovakia","1993","46658.9721015063"
"Slovakia","1992","49155.950666275"
"Slovakia","1991","53617.0695510459"
"Slovakia","1990","61995.726890584"
"Slovenia","2016","14399.7892339647"
"Slovenia","2015","13599.1420305343"
"Slovenia","2014","13512.5759696322"
"Slovenia","2013","15167.0769411453"
"Slovenia","2012","15800.7550594513"
"Slovenia","2011","16340.5724028567"
"Slovenia","2010","16352.6273657606"
"Slovenia","2009","16310.0101028188"
"Slovenia","2008","18197.3913201714"
"Slovenia","2007","17259.960278523"
"Slovenia","2006","17124.0060053955"
"Slovenia","2005","16928.8065631011"
"Slovenia","2004","16630.6635476486"
"Slovenia","2003","16270.1345875252"
"Slovenia","2002","16508.2039952681"
"Slovenia","2001","16363.2970223245"
"Slovenia","2000","15430.0935978173"
"Slovenia","1999","15323.442103101"
"Slovenia","1998","15948.2236370363"
"Slovenia","1997","16232.9958870596"
"Slovenia","1996","15905.820132985"
"Slovenia","1995","15244.4535765912"
"Slovenia","1994","14633.7811711291"
"Slovenia","1993","14292.670049036"
"Slovenia","1992","13996.0113948908"
"Slovenia","1991","13995.0342312032"
"Slovenia","1990","15074.4297498166"
"Spain","2016","260985.896029201"
"Spain","2015","271727.199521591"
"Spain","2014","255195.738966857"
"Spain","2013","252682.710715247"
"Spain","2012","279271.283698844"
"Spain","2011","284594.749264806"
"Spain","2010","283877.489660119"
"Spain","2009","297248.140982549"
"Spain","2008","336490.118532398"
"Spain","2007","368133.602986463"
"Spain","2006","360279.239640089"
"Spain","2005","368964.132578827"
"Spain","2004","354285.655585136"
"Spain","2003","337979.232848109"
"Spain","2002","334007.11554958"
"Spain","2001","313891.993742763"
"Spain","2000","311926.058938648"
"Spain","1999","300176.561009584"
"Spain","1998","276635.970827802"
"Spain","1997","268058.721813468"
"Spain","1996","255447.995865448"
"Spain","1995","267832.186873403"
"Spain","1994","254234.048192197"
"Spain","1993","241817.825768913"
"Spain","1992","250326.924363345"
"Spain","1991","241464.996588999"
"Spain","1990","231895.048424778"
"Sweden","2016","42568.0179244815"
"Sweden","2015","43385.5569880444"
"Sweden","2014","43225.7057017346"
"Sweden","2013","44768.9971975729"
"Sweden","2012","46403.5662837673"
"Sweden","2011","48969.9564106485"
"Sweden","2010","52927.274753642"
"Sweden","2009","47153.2388210413"
"Sweden","2008","50723.0956446411"
"Sweden","2007","52816.4776760024"
"Sweden","2006","53672.7504996821"
"Sweden","2005","53843.3105733616"
"Sweden","2004","56443.3405613504"
"Sweden","2003","57224.3536113858"
"Sweden","2002","56641.3128426878"
"Sweden","2001","55682.2907082463"
"Sweden","2000","54724.9804989296"
"Sweden","1999","55856.9740580281"
"Sweden","1998","58717.0750072746"
"Sweden","1997","58132.7106612597"
"Sweden","1996","63194.022882569"
"Sweden","1995","59276.1262798147"
"Sweden","1994","59845.4923372439"
"Sweden","1993","57395.7140350447"
"Sweden","1992","57447.0917049443"
"Sweden","1991","57713.4934386139"
"Sweden","1990","57506.3428215546"
"Switzerland","2016","39204.913868834"
"Switzerland","2015","38738.547125415"
"Switzerland","2014","39237.750656818"
"Switzerland","2013","43183.9098279417"
"Switzerland","2012","42250.900617802"
"Switzerland","2011","40979.6892403639"
"Switzerland","2010","45045.1026002736"
"Switzerland","2009","43528.0676425536"
"Switzerland","2008","44706.6878213419"
"Switzerland","2007","43359.8275004962"
"Switzerland","2006","45365.6282802239"
"Switzerland","2005","45779.8377744183"
"Switzerland","2004","45228.284209507"
"Switzerland","2003","44644.1011892214"
"Switzerland","2002","43458.5270744742"
"Switzerland","2001","45075.7971749339"
"Switzerland","2000","43611.917322935"
"Switzerland","1999","44441.7095031673"
"Switzerland","1998","44612.3471094055"
"Switzerland","1997","43035.0156748116"
"Switzerland","1996","44098.4654202557"
"Switzerland","1995","43414.0607930657"
"Switzerland","1994","42678.5696001707"
"Switzerland","1993","43604.6793088759"
"Switzerland","1992","46015.4927568567"
"Switzerland","1991","46140.163718012"
"Switzerland","1990","44161.9396574547"
"Turkey","2016","402820.783787371"
"Turkey","2015","380858.096415169"
"Turkey","2014","357559.960934775"
"Turkey","2013","346780.965045097"
"Turkey","2012","354134.764665979"
"Turkey","2011","344745.49511454"
"Turkey","2010","319528.399842357"
"Turkey","2009","316771.03190838"
"Turkey","2008","310396.695708495"
"Turkey","2007","312862.498172747"
"Turkey","2006","281541.718845738"
"Turkey","2005","260897.954882781"
"Turkey","2004","241909.220763599"
"Turkey","2003","232963.018814533"
"Turkey","2002","217652.912625343"
"Turkey","2001","209529.144850522"
"Turkey","2000","226029.842484573"
"Turkey","1999","203949.027540222"
"Turkey","1998","208042.30336915"
"Turkey","1997","208023.000113824"
"Turkey","1996","195750.702825204"
"Turkey","1995","178310.252677494"
"Turkey","1994","163783.172139654"
"Turkey","1993","167301.865453102"
"Turkey","1992","159065.847277588"
"Turkey","1991","153538.017516535"
"Turkey","1990","146507.199595641"
"Ukraine","2016","235156.014393971"
"Ukraine","2015","223579.698087286"
"Ukraine","2014","256583.598971804"
"Ukraine","2013","296074.061206865"
"Ukraine","2012","303705.068346831"
"Ukraine","2011","307071.163893081"
"Ukraine","2010","293518.810795166"
"Ukraine","2009","277169.902079293"
"Ukraine","2008","325732.775756135"
"Ukraine","2007","336601.096574665"
"Ukraine","2006","332764.711387944"
"Ukraine","2005","313533.699788368"
"Ukraine","2004","306255.428816872"
"Ukraine","2003","305183.445038823"
"Ukraine","2002","294199.978296842"
"Ukraine","2001","301300.733165838"
"Ukraine","2000","279537.842794062"
"Ukraine","1999","292311.281415959"
"Ukraine","1998","321067.218757315"
"Ukraine","1997","340243.79736679"
"Ukraine","1996","351409.867304643"
"Ukraine","1995","389865.789200143"
"Ukraine","1994","419267.635275944"
"Ukraine","1993","510201.372931127"
"Ukraine","1992","589062.246150783"
"Ukraine","1991","632538.757796713"
"Ukraine","1990","705832.231016827"
"United Kingdom","2016","398033.275659367"
"United Kingdom","2015","422193.839956935"
"United Kingdom","2014","438268.664394138"
"United Kingdom","2013","477356.475352279"
"United Kingdom","2012","487324.894368547"
"United Kingdom","2011","469523.407746153"
"United Kingdom","2010","511979.381938069"
"United Kingdom","2009","494356.357738572"
"United Kingdom","2008","544656.278988207"
"United Kingdom","2007","559237.939387628"
"United Kingdom","2006","567556.978304428"
"United Kingdom","2005","569874.270024209"
"United Kingdom","2004","573082.75143629"
"United Kingdom","2003","571461.421155282"
"United Kingdom","2002","559902.478493405"
"United Kingdom","2001","575793.896184685"
"United Kingdom","2000","566932.533582656"
"United Kingdom","1999","560412.827830269"
"United Kingdom","1998","567403.381574942"
"United Kingdom","1997","562412.222792919"
"United Kingdom","1996","588472.631632116"
"United Kingdom","1995","566843.952467474"
"United Kingdom","1994","575638.946954135"
"United Kingdom","1993","579459.12698552"
"United Kingdom","1992","593571.2399723"
"United Kingdom","1991","609198.025204674"
"United Kingdom","1990","601342.996023404"
"United States of America","2016","5310861.40606591"
"United States of America","2015","5420804.12720778"
"United States of America","2014","5568759.25826517"
"United States of America","2013","5519612.55692856"
"United States of America","2012","5366730.2811548"
"United States of America","2011","5570706.56001178"
"United States of America","2010","5701075.80749757"
"United States of America","2009","5495394.95833554"
"United States of America","2008","5932775.28079493"
"United States of America","2007","6130983.5626347"
"United States of America","2006","6052236.28555381"
"United States of America","2005","6132005.70430607"
"United States of America","2004","6106620.73525022"
"United States of America","2003","5991319.56917725"
"United States of America","2002","5943651.27911871"
"United States of America","2001","5902454.99253816"
"United States of America","2000","6000606.06666851"
"United States of America","1999","5832250.17832869"
"United States of America","1998","5752324.18956138"
"United States of America","1997","5703890.70767035"
"United States of America","1996","5626186.71696691"
"United States of America","1995","5439213.31396372"
"United States of America","1994","5377987.13728108"
"United States of America","1993","5284687.8824102"
"United States of America","1992","5174059.07595785"
"United States of America","1991","5070839.40039074"
"United States of America","1990","5121264.46061024"